{
  "profile": {
    "authorized": false,
    "activeTickets": [],
    "history": [],
    "favoriteEvents": [
      0, 20
    ],
    "settings": {
      "notification": {
        "enabledEmail": true,
        "enabledSMS": true,
        "cities": [],
        "categories": [],
        "genres": []
      },
      "personal": {
        "name": "",
        "email": "",
        "phone": "",
        "city": 3,
        "cards": []
      }
    }
  },
  "tours": {
    "allTours": [],
    "byID": {}
  },
  "events": {
    "byID": {},
    "topEvents": [],
    "allEvents": [],
    "details": {}
  },
  "cities": {
    "byID": {},
    "byName": {}
  },
  "genres": {},
  "uiData": {
    "phones": [
      "+380981111111",
      "+380981111111"
    ],
    "posters": []
  },
  "api": {}
}